Prac day 4
…
[1] 0.1052391

Question 6

Identifying the routes that more than one airline flies.

multi_airline_routes <- flights |>
  group_by(origin, dest) |>
  summarise(num_airlines = n_distinct(carrier), .groups = "drop") |>
  filter(num_airlines > 1)

multi_airline_routes

# A tibble: 128 × 3
   origin dest  num_airlines
   <chr>  <chr>        <int>
 1 EWR    ATL              4
 2 EWR    AUS              2
 3 EWR    BDL              2
 4 EWR    BNA              2
 5 EWR    BOS              3
 6 EWR    BWI              2
 7 EWR    CHS              2
 8 EWR    CLE              2
 9 EWR    CLT              3
10 EWR    CVG              2
# ℹ 118 more rows

Calculate the average arrival delay for each airline

route_delays <- flights |>
  inner_join(multi_airline_routes, by = c("origin", "dest")) |>
  group_by(origin, dest, carrier) |>
  summarise(avg_arr_delay = mean(arr_delay, na.rm = TRUE), .groups = "drop")

route_delays

# A tibble: 343 × 4
   origin dest  carrier avg_arr_delay
   <chr>  <chr> <chr>           <dbl>
 1 EWR    ATL   9E              -6.25
 2 EWR    ATL   DL              10.0 
 3 EWR    ATL   EV              19.5 
 4 EWR    ATL   UA              10.5 
 5 EWR    AUS   UA               4.28
 6 EWR    AUS   WN             -11.2 
 7 EWR    BDL   EV               6.78
 8 EWR    BDL   UA              22.6 
 9 EWR    BNA   EV              17.7 
10 EWR    BNA   WN              -2.13
# ℹ 333 more rows

Finding the names of these airlines

route_delays_with_names <- route_delays |>
  inner_join(airlines, by = "carrier") |>
  select(origin, dest, name, avg_arr_delay)

route_delays_with_names

# A tibble: 343 × 4
   origin dest  name                     avg_arr_delay
   <chr>  <chr> <chr>                            <dbl>
 1 EWR    ATL   Endeavor Air Inc.                -6.25
 2 EWR    ATL   Delta Air Lines Inc.             10.0 
 3 EWR    ATL   ExpressJet Airlines Inc.         19.5 
 4 EWR    ATL   United Air Lines Inc.            10.5 
 5 EWR    AUS   United Air Lines Inc.             4.28
 6 EWR    AUS   Southwest Airlines Co.          -11.2 
 7 EWR    BDL   ExpressJet Airlines Inc.          6.78
 8 EWR    BDL   United Air Lines Inc.            22.6 
 9 EWR    BNA   ExpressJet Airlines Inc.         17.7 
10 EWR    BNA   Southwest Airlines Co.           -2.13
# ℹ 333 more rows
…
route_performance

# A tibble: 128 × 8
   origin dest  worst_airline worst_delay best_airline best_delay
   <chr>  <chr> <chr>               <dbl> <chr>             <dbl>
 1 EWR    ATL   EV                  19.5  9E               -6.25 
 2 EWR    AUS   UA                   4.28 WN              -11.2  
 3 EWR    BDL   UA                  22.6  EV                6.78 
 4 EWR    BNA   EV                  17.7  WN               -2.13 
 5 EWR    BOS   B6                   6.87 EV               -4.01 
 6 EWR    BWI   EV                  20.1  WN                5.95 
 7 EWR    CHS   EV                  16.2  UA              -14    
 8 EWR    CLE   UA                   5.97 EV               -3.71 
 9 EWR    CLT   EV                  20.5  US                0.920
10 EWR    CVG   EV                  21.2  9E                1.40 
# ℹ 118 more rows
# ℹ 2 more variables: worst_airline_name <chr>, best_airline_name <chr>
…
